(footprint "CAP-SMD-SIZE-D" (version 20211014) (generator pcbnew)
  (layer "F.Cu")
  (tedit 55A243AD)
  (attr smd)
  (fp_text reference "REF**" (at -4 0 90) (layer "F.SilkS")
    (effects (font (size 1 1) (thickness 0.15)))
    (tstamp 621dfef7-c8de-4987-84b3-94dd9db591b9)
  )
  (fp_text value "CAP-SMD-SIZE-D" (at 4.2 0 90) (layer "F.Fab") hide
    (effects (font (size 1 1) (thickness 0.15)))
    (tstamp 26d56029-bc49-4007-bdab-18100dc32d29)
  )
  (fp_line (start 3.3 3.3) (end 1 3.3) (layer "F.SilkS") (width 0.15) (tstamp 1801b443-6b0e-48fc-b25d-6d71dfb9ae6b))
  (fp_line (start -3.3 3.3) (end -1.1 3.3) (layer "F.SilkS") (width 0.15) (tstamp 1a44dbfc-6314-4eb9-a84f-11b170a06a4b))
  (fp_line (start -3.3 -2.3) (end -3.3 0) (layer "F.SilkS") (width 0.15) (tstamp 1c368a2d-b8f7-4723-93f4-48b7ff55c7ae))
  (fp_line (start 3.3 0) (end 3.3 -2.3) (layer "F.SilkS") (width 0.15) (tstamp 51139968-00df-4b36-a98c-28ac3690ed1d))
  (fp_line (start -2.3 -3.3) (end -1 -3.3) (layer "F.SilkS") (width 0.15) (tstamp 9462114a-80c8-4634-ab6f-c9fb4183289a))
  (fp_line (start -2.3 -3.3) (end -3.3 -2.3) (layer "F.SilkS") (width 0.15) (tstamp ad7834cb-db98-4dcd-bfa9-7534851a55d5))
  (fp_line (start 3.3 3.3) (end 3.3 0) (layer "F.SilkS") (width 0.15) (tstamp b7547fa5-4fc8-4929-8853-687322bce79f))
  (fp_line (start -3.3 0) (end -3.3 3.3) (layer "F.SilkS") (width 0.15) (tstamp bdd4c050-34e4-423e-a47b-619b6419de16))
  (fp_line (start 3.3 -2.3) (end 2.3 -3.3) (layer "F.SilkS") (width 0.15) (tstamp bf0f3c68-c48c-4edc-87d6-3de4ba258bd6))
  (fp_line (start 2.3 -3.3) (end 1 -3.3) (layer "F.SilkS") (width 0.15) (tstamp c8124cdf-c53a-4ecc-8c57-95cfa465d20b))
  (pad "1" smd rect (at 0 -2.8) (size 1.5 4) (layers "F.Cu" "F.Paste" "F.Mask") (tstamp cce71182-bbf8-48cf-b863-61c0e5a16c0a))
  (pad "2" smd rect (at 0 2.8) (size 1.5 4) (layers "F.Cu" "F.Paste" "F.Mask") (tstamp a8caa272-9c31-435a-9298-cb9745d4c3c9))
)
