(footprint "CAP-SMD-SIZE-G" (version 20211014) (generator pcbnew)
  (layer "F.Cu")
  (tedit 55A24F08)
  (attr smd)
  (fp_text reference "REF**" (at -6.1 0 90) (layer "F.SilkS")
    (effects (font (size 1 1) (thickness 0.15)))
    (tstamp 26c87ab0-4faa-4b4d-9b27-2ce3a4c064fc)
  )
  (fp_text value "CAP-SMD-SIZE-G" (at 6.2 0 90) (layer "F.Fab") hide
    (effects (font (size 1 1) (thickness 0.15)))
    (tstamp 395e8ee6-631a-4a95-a34c-b9f74b45699b)
  )
  (fp_line (start -5.15 5.15) (end -5.15 0) (layer "F.SilkS") (width 0.15) (tstamp 14304169-1708-40c2-8029-a32d27bc2e2a))
  (fp_line (start 5.15 5.15) (end 5.15 0) (layer "F.SilkS") (width 0.15) (tstamp 1721c39c-ec13-4125-a756-ba5fb098faa1))
  (fp_line (start 5.15 0) (end 5.15 -3.15) (layer "F.SilkS") (width 0.15) (tstamp 2505c858-aab6-46b5-866d-0b68c0675453))
  (fp_line (start 5.15 5.15) (end 1.25 5.15) (layer "F.SilkS") (width 0.15) (tstamp 52a70d17-f4a4-47a3-9c6b-0d7e084b1b03))
  (fp_line (start -3.15 -5.15) (end -1.25 -5.15) (layer "F.SilkS") (width 0.15) (tstamp 5dcdbb5d-6d62-462b-825c-37422d9f9f20))
  (fp_line (start -5.15 -3.15) (end -5.15 0) (layer "F.SilkS") (width 0.15) (tstamp 615a5577-108e-4bef-9f79-aa2aa94d6240))
  (fp_line (start 5.15 -3.15) (end 3.15 -5.15) (layer "F.SilkS") (width 0.15) (tstamp 6d849276-7e8c-4b68-af91-00cb2fe8721a))
  (fp_line (start -5.15 5.15) (end -1.25 5.15) (layer "F.SilkS") (width 0.15) (tstamp e08a96cb-6d8f-4de3-b11c-f102756cbb22))
  (fp_line (start 3.05 -5.15) (end 1.25 -5.15) (layer "F.SilkS") (width 0.15) (tstamp f2c7667e-525e-45db-bc4b-3abfc1a7118f))
  (fp_line (start -3.15 -5.15) (end -5.15 -3.15) (layer "F.SilkS") (width 0.15) (tstamp ffb279f7-6738-4fa2-96f8-ed1d8c859e40))
  (pad "1" smd rect (at 0 -4.5) (size 2 4.5) (layers "F.Cu" "F.Paste" "F.Mask") (tstamp 9e0e13e5-36a3-4139-83bc-c4b50c41b7a6))
  (pad "2" smd rect (at 0 4.5) (size 2 4.5) (layers "F.Cu" "F.Paste" "F.Mask") (tstamp 8029a087-ed17-4a7a-9302-04f1cb48e95f))
)
