(module CONN_DVI (layer F.Cu) (tedit 5E9D80B3)
  (fp_text reference REF** (at 0.1 -3) (layer F.SilkS)
    (effects (font (size 1 1) (thickness 0.15)))
  )
  (fp_text value CONN_DVI (at 0 6.4) (layer F.Fab)
    (effects (font (size 1 1) (thickness 0.15)))
  )
  (fp_line (start 0 10) (end 19 10) (layer F.SilkS) (width 0.15))
  (fp_line (start 19 10) (end 19 4) (layer F.SilkS) (width 0.15))
  (fp_line (start 19 4) (end 17.5 4) (layer F.SilkS) (width 0.15))
  (fp_line (start 13.5 4) (end 11 4) (layer F.SilkS) (width 0.15))
  (fp_line (start 11 4) (end 11 -2) (layer F.SilkS) (width 0.15))
  (fp_line (start 11 -2) (end -11 -2) (layer F.SilkS) (width 0.15))
  (fp_line (start -11 -2) (end -11 4) (layer F.SilkS) (width 0.15))
  (fp_line (start -11 4) (end -13.5 4) (layer F.SilkS) (width 0.15))
  (fp_line (start 0 10) (end -19 10) (layer F.SilkS) (width 0.15))
  (fp_line (start -19 10) (end -19 4) (layer F.SilkS) (width 0.15))
  (fp_line (start -19 4) (end -17.5 4) (layer F.SilkS) (width 0.15))
  (pad 1 thru_hole circle (at -9.525 0) (size 1.4 1.4) (drill 0.9) (layers *.Cu *.Mask))
  (pad 2 thru_hole circle (at -7.62 0) (size 1.4 1.4) (drill 0.9) (layers *.Cu *.Mask))
  (pad 3 thru_hole circle (at -5.715 0) (size 1.4 1.4) (drill 0.9) (layers *.Cu *.Mask))
  (pad 4 thru_hole circle (at -3.81 0) (size 1.4 1.4) (drill 0.9) (layers *.Cu *.Mask))
  (pad 5 thru_hole circle (at -1.905 0) (size 1.4 1.4) (drill 0.9) (layers *.Cu *.Mask))
  (pad 6 thru_hole circle (at 0 0) (size 1.4 1.4) (drill 0.9) (layers *.Cu *.Mask))
  (pad 7 thru_hole circle (at 1.905 0) (size 1.4 1.4) (drill 0.9) (layers *.Cu *.Mask))
  (pad 8 thru_hole circle (at 3.81 0) (size 1.4 1.4) (drill 0.9) (layers *.Cu *.Mask))
  (pad 9 thru_hole circle (at -9.525 1.905) (size 1.4 1.4) (drill 0.9) (layers *.Cu *.Mask))
  (pad 10 thru_hole circle (at -7.62 1.905) (size 1.4 1.4) (drill 0.9) (layers *.Cu *.Mask))
  (pad 11 thru_hole circle (at -5.715 1.905) (size 1.4 1.4) (drill 0.9) (layers *.Cu *.Mask))
  (pad 12 thru_hole circle (at -3.81 1.905) (size 1.4 1.4) (drill 0.9) (layers *.Cu *.Mask))
  (pad 13 thru_hole circle (at -1.905 1.905) (size 1.4 1.4) (drill 0.9) (layers *.Cu *.Mask))
  (pad 14 thru_hole circle (at 0 1.905) (size 1.4 1.4) (drill 0.9) (layers *.Cu *.Mask))
  (pad 15 thru_hole circle (at 1.905 1.905) (size 1.4 1.4) (drill 0.9) (layers *.Cu *.Mask))
  (pad 16 thru_hole circle (at 3.81 1.905) (size 1.4 1.4) (drill 0.9) (layers *.Cu *.Mask))
  (pad 17 thru_hole circle (at -9.525 3.81) (size 1.4 1.4) (drill 0.9) (layers *.Cu *.Mask))
  (pad 18 thru_hole circle (at -7.62 3.81) (size 1.4 1.4) (drill 0.9) (layers *.Cu *.Mask))
  (pad 19 thru_hole circle (at -5.715 3.81) (size 1.4 1.4) (drill 0.9) (layers *.Cu *.Mask))
  (pad 20 thru_hole circle (at -3.81 3.81) (size 1.4 1.4) (drill 0.9) (layers *.Cu *.Mask))
  (pad 21 thru_hole circle (at -1.905 3.81) (size 1.4 1.4) (drill 0.9) (layers *.Cu *.Mask))
  (pad 22 thru_hole circle (at 0 3.81) (size 1.4 1.4) (drill 0.9) (layers *.Cu *.Mask))
  (pad 23 thru_hole circle (at 1.905 3.81) (size 1.4 1.4) (drill 0.9) (layers *.Cu *.Mask))
  (pad 24 thru_hole circle (at 3.81 3.81) (size 1.4 1.4) (drill 0.9) (layers *.Cu *.Mask))
  (pad 32 thru_hole circle (at -9.525 7.12) (size 3 3) (drill 1.95) (layers *.Cu *.Mask))
  (pad 31 thru_hole circle (at -15.365 3.81) (size 3 3) (drill 1.95) (layers *.Cu *.Mask))
  (pad 33 thru_hole circle (at 9.525 7.12) (size 3 3) (drill 1.95) (layers *.Cu *.Mask))
  (pad 34 thru_hole circle (at 15.365 3.81) (size 3 3) (drill 1.95) (layers *.Cu *.Mask))
  (pad 30 thru_hole circle (at 8.255 4.45) (size 1.3 1.3) (drill 0.7) (layers *.Cu *.Mask))
  (pad 29 thru_hole circle (at 8.255 -0.63) (size 1.3 1.3) (drill 0.7) (layers *.Cu *.Mask))
  (pad 28 thru_hole circle (at 9.525 3.18) (size 1.3 1.3) (drill 0.7) (layers *.Cu *.Mask))
  (pad 27 thru_hole circle (at 6.985 3.18) (size 1.3 1.3) (drill 0.7) (layers *.Cu *.Mask))
  (pad 25 thru_hole circle (at 6.985 0.64) (size 1.3 1.3) (drill 0.7) (layers *.Cu *.Mask))
  (pad 26 thru_hole circle (at 9.525 0.64) (size 1.3 1.3) (drill 0.7) (layers *.Cu *.Mask))
)
