(footprint "CONN-JST-PH-B13B-P2.00mm" (version 20211014) (generator pcbnew)
  (layer "F.Cu")
  (tedit 5B7745C2)
  (descr "JST PH series connector, B13B-PH-K (http://www.jst-mfg.com/product/pdf/eng/ePH.pdf), generated with kicad-footprint-generator")
  (tags "connector JST PH side entry")
  (attr through_hole)
  (fp_text reference "REF**" (at 12 -2.9) (layer "F.SilkS")
    (effects (font (size 1 1) (thickness 0.15)))
    (tstamp f122d9b3-48ee-43e4-9915-fb771b3f3427)
  )
  (fp_text value "CONN-JST-PH-B13B-P2.00mm" (at 12 4) (layer "F.Fab")
    (effects (font (size 1 1) (thickness 0.15)))
    (tstamp 1236ec87-1fca-4d55-bb8a-6c605fd14f9b)
  )
  (fp_text user "${REFERENCE}" (at 12 1.5) (layer "F.Fab")
    (effects (font (size 1 1) (thickness 0.15)))
    (tstamp 0c2e2932-b407-4927-b429-8b5ce7b74d9b)
  )
  (fp_line (start 13.1 1.8) (end 13.1 2.3) (layer "F.SilkS") (width 0.12) (tstamp 06af3330-9c1e-4dca-8d35-b12d47c3e0cf))
  (fp_line (start -2.06 -1.81) (end -2.06 2.91) (layer "F.SilkS") (width 0.12) (tstamp 06cbec0b-b202-476b-ba0d-849f43884ccb))
  (fp_line (start 3 2.3) (end 3 1.8) (layer "F.SilkS") (width 0.12) (tstamp 081061be-9f0e-4240-b6d0-1ffc9e789b13))
  (fp_line (start -2.06 0.8) (end -1.45 0.8) (layer "F.SilkS") (width 0.12) (tstamp 0dcbbdda-0c29-49e0-89c8-3e4adc5afca5))
  (fp_line (start -0.3 -1.81) (end -0.3 -2.01) (layer "F.SilkS") (width 0.12) (tstamp 0e72918f-3629-4aa9-8c66-0aa4dadf61a2))
  (fp_line (start 2.9 2.3) (end 2.9 1.8) (layer "F.SilkS") (width 0.12) (tstamp 0f46ace2-641e-4b09-b17c-c4bc903cfeb7))
  (fp_line (start 5.1 1.8) (end 5.1 2.3) (layer "F.SilkS") (width 0.12) (tstamp 18682bdc-dfa3-441d-9fb3-7b88c3936b38))
  (fp_line (start 26.06 -0.5) (end 25.45 -0.5) (layer "F.SilkS") (width 0.12) (tstamp 19f224f3-6b48-4b3c-8ef2-3138fa82b44d))
  (fp_line (start 1.1 1.8) (end 1.1 2.3) (layer "F.SilkS") (width 0.12) (tstamp 225ab930-0e02-472b-bfc1-db942ea8c066))
  (fp_line (start 9.1 1.8) (end 9.1 2.3) (layer "F.SilkS") (width 0.12) (tstamp 225e5dfc-8a19-4768-97df-f4b7ea3489ee))
  (fp_line (start -0.3 -2.01) (end -0.6 -2.01) (layer "F.SilkS") (width 0.12) (tstamp 2618ec67-ad22-46ad-a58e-1487daf24a2a))
  (fp_line (start 18.9 2.3) (end 18.9 1.8) (layer "F.SilkS") (width 0.12) (tstamp 2cc0c5f9-a182-4376-9f42-3f83599d0335))
  (fp_line (start 21.1 1.8) (end 21.1 2.3) (layer "F.SilkS") (width 0.12) (tstamp 2d1708c0-9f05-4ba7-a8c7-87dad3dc8f51))
  (fp_line (start 0.5 -1.2) (end -1.45 -1.2) (layer "F.SilkS") (width 0.12) (tstamp 34ae2f33-4ce3-431b-8348-5271432d5f1c))
  (fp_line (start 26.06 2.91) (end 26.06 -1.81) (layer "F.SilkS") (width 0.12) (tstamp 3b5c030b-53ad-4bf8-a545-db4123c8521e))
  (fp_line (start -2.06 -0.5) (end -1.45 -0.5) (layer "F.SilkS") (width 0.12) (tstamp 3cc6a650-335e-4380-ba52-1b4ac7291175))
  (fp_line (start 0.9 1.8) (end 1.1 1.8) (layer "F.SilkS") (width 0.12) (tstamp 3cf3d390-5b0c-472d-aafa-9059fd1a3709))
  (fp_line (start 25.45 2.3) (end 25.45 -1.2) (layer "F.SilkS") (width 0.12) (tstamp 3cf60bf8-c289-413c-9b23-16570760fc69))
  (fp_line (start 26.06 -1.81) (end -2.06 -1.81) (layer "F.SilkS") (width 0.12) (tstamp 3fe81093-7668-4316-8555-20e7074215af))
  (fp_line (start 7 2.3) (end 7 1.8) (layer "F.SilkS") (width 0.12) (tstamp 499f32cb-fcf3-42d8-8ea5-96b1ee3b64a6))
  (fp_line (start 20.9 2.3) (end 20.9 1.8) (layer "F.SilkS") (width 0.12) (tstamp 4e0d632b-0f6c-46aa-8b94-de244a8398fb))
  (fp_line (start 3.1 1.8) (end 3.1 2.3) (layer "F.SilkS") (width 0.12) (tstamp 510488bf-e808-429d-8308-0b73f8752d80))
  (fp_line (start 16.9 2.3) (end 16.9 1.8) (layer "F.SilkS") (width 0.12) (tstamp 53052bea-b461-4c27-9a2b-c325e65ac560))
  (fp_line (start 22.9 1.8) (end 23.1 1.8) (layer "F.SilkS") (width 0.12) (tstamp 5a5a04cf-f0c6-4469-b905-c9950b104d18))
  (fp_line (start 11.1 1.8) (end 11.1 2.3) (layer "F.SilkS") (width 0.12) (tstamp 5c7cb928-eca3-4d53-a97d-649b62195e10))
  (fp_line (start -1.11 -2.11) (end -2.36 -2.11) (layer "F.SilkS") (width 0.12) (tstamp 5e3547c5-457e-4102-b427-1e2c049fcb82))
  (fp_line (start 4.9 2.3) (end 4.9 1.8) (layer "F.SilkS") (width 0.12) (tstamp 620669f7-2bb7-4607-865c-56d1f286847f))
  (fp_line (start 19.1 1.8) (end 19.1 2.3) (layer "F.SilkS") (width 0.12) (tstamp 64f6b05d-9e1b-49a2-8850-ab355bd792e6))
  (fp_line (start 4.9 1.8) (end 5.1 1.8) (layer "F.SilkS") (width 0.12) (tstamp 6a4e4f3a-9ca7-4c87-9b48-1ba76e681745))
  (fp_line (start -2.06 2.91) (end 26.06 2.91) (layer "F.SilkS") (width 0.12) (tstamp 6ef64f97-d657-4633-9328-9b8fb276177c))
  (fp_line (start 2.9 1.8) (end 3.1 1.8) (layer "F.SilkS") (width 0.12) (tstamp 736eeb24-1327-442c-b9f3-886b8b93d309))
  (fp_line (start 26.06 0.8) (end 25.45 0.8) (layer "F.SilkS") (width 0.12) (tstamp 7b65d946-d2b7-4741-8675-3af55034d2ad))
  (fp_line (start 21 2.3) (end 21 1.8) (layer "F.SilkS") (width 0.12) (tstamp 83a5227c-6eca-4ff7-8a45-ad0bb98b6071))
  (fp_line (start 9 2.3) (end 9 1.8) (layer "F.SilkS") (width 0.12) (tstamp 841deeec-adf2-4c5f-808f-e030cd9ab26b))
  (fp_line (start 10.9 2.3) (end 10.9 1.8) (layer "F.SilkS") (width 0.12) (tstamp 845e8795-8f0e-4d74-a81a-ec178ad6c8a8))
  (fp_line (start 12.9 2.3) (end 12.9 1.8) (layer "F.SilkS") (width 0.12) (tstamp 8b151ac0-3be9-42dd-bd88-4bb269fcf3b7))
  (fp_line (start 6.9 2.3) (end 6.9 1.8) (layer "F.SilkS") (width 0.12) (tstamp 8fe5ff62-3607-4c52-b30f-8fe09b92e6c9))
  (fp_line (start 20.9 1.8) (end 21.1 1.8) (layer "F.SilkS") (width 0.12) (tstamp 91847c2d-e2c6-4b24-b971-a975bc73362d))
  (fp_line (start 8.9 2.3) (end 8.9 1.8) (layer "F.SilkS") (width 0.12) (tstamp 96caec01-ddd8-41ca-8cea-b91f759267eb))
  (fp_line (start 17 2.3) (end 17 1.8) (layer "F.SilkS") (width 0.12) (tstamp a213f79a-4a43-4e23-9e53-61d426ab70c8))
  (fp_line (start -0.6 -2.01) (end -0.6 -1.81) (layer "F.SilkS") (width 0.12) (tstamp a3b31977-66ee-4a15-9e4a-4adcb3d31f5e))
  (fp_line (start 13 2.3) (end 13 1.8) (layer "F.SilkS") (width 0.12) (tstamp a4a60582-c6ff-4bf6-80af-4a087e2bdce7))
  (fp_line (start 14.9 2.3) (end 14.9 1.8) (layer "F.SilkS") (width 0.12) (tstamp a4ac4360-77bd-4deb-9db6-45bd3f54952c))
  (fp_line (start 18.9 1.8) (end 19.1 1.8) (layer "F.SilkS") (width 0.12) (tstamp aa91c1d2-3342-49a3-af2f-701bc242c8e3))
  (fp_line (start 6.9 1.8) (end 7.1 1.8) (layer "F.SilkS") (width 0.12) (tstamp aac91f9e-bbff-4c7d-b001-c94153c86ed9))
  (fp_line (start -0.3 -1.91) (end -0.6 -1.91) (layer "F.SilkS") (width 0.12) (tstamp abd81252-fc73-40f0-ad50-528cc879aaf4))
  (fp_line (start -2.36 -2.11) (end -2.36 -0.86) (layer "F.SilkS") (width 0.12) (tstamp b2520ba7-133e-4e5d-9a1e-c97938da8ffc))
  (fp_line (start 11 2.3) (end 11 1.8) (layer "F.SilkS") (width 0.12) (tstamp b4ed23fc-b6d3-4565-bb6b-abaa54d5b193))
  (fp_line (start -1.45 2.3) (end 25.45 2.3) (layer "F.SilkS") (width 0.12) (tstamp b64a897d-eac8-4474-86ba-96cb5222c81e))
  (fp_line (start 0.9 2.3) (end 0.9 1.8) (layer "F.SilkS") (width 0.12) (tstamp bdc4bd41-8449-486f-a53f-bc6fb900b870))
  (fp_line (start 8.9 1.8) (end 9.1 1.8) (layer "F.SilkS") (width 0.12) (tstamp bdde5c9e-537f-47cd-ab7c-d911f0f47916))
  (fp_line (start 23.5 -1.2) (end 23.5 -1.81) (layer "F.SilkS") (width 0.12) (tstamp c0a9397a-e1c1-4c1d-82b3-42e56067b822))
  (fp_line (start 23 2.3) (end 23 1.8) (layer "F.SilkS") (width 0.12) (tstamp c0ba36e8-998b-4f2f-b66b-1d4127e0ed06))
  (fp_line (start -1.45 -1.2) (end -1.45 2.3) (layer "F.SilkS") (width 0.12) (tstamp c130f84e-c5a3-4074-aa11-1f45549bf83c))
  (fp_line (start 15 2.3) (end 15 1.8) (layer "F.SilkS") (width 0.12) (tstamp c1950377-b864-47c9-a218-46def8d7f346))
  (fp_line (start 12.9 1.8) (end 13.1 1.8) (layer "F.SilkS") (width 0.12) (tstamp c40a5891-a5f7-433a-a6ca-48cd4208a92b))
  (fp_line (start 25.45 -1.2) (end 23.5 -1.2) (layer "F.SilkS") (width 0.12) (tstamp c52bd08b-dfe5-418b-af03-2c571804a184))
  (fp_line (start 14.9 1.8) (end 15.1 1.8) (layer "F.SilkS") (width 0.12) (tstamp c7505acc-9c03-441b-9874-50d8984384cd))
  (fp_line (start 19 2.3) (end 19 1.8) (layer "F.SilkS") (width 0.12) (tstamp d0fb3cbd-9e2b-484b-978d-631c1b2152dc))
  (fp_line (start 23.1 1.8) (end 23.1 2.3) (layer "F.SilkS") (width 0.12) (tstamp d17743c5-dd6f-4fd1-9bbf-126bdc71c516))
  (fp_line (start 15.1 1.8) (end 15.1 2.3) (layer "F.SilkS") (width 0.12) (tstamp d3b6f914-05b6-4692-9362-a0b9674f9261))
  (fp_line (start 1 2.3) (end 1 1.8) (layer "F.SilkS") (width 0.12) (tstamp d81525e0-29fd-41fa-b344-a9c683ff214b))
  (fp_line (start 16.9 1.8) (end 17.1 1.8) (layer "F.SilkS") (width 0.12) (tstamp e8ea8fcb-3c01-4ad4-a0e4-10e36bfaf7fa))
  (fp_line (start 7.1 1.8) (end 7.1 2.3) (layer "F.SilkS") (width 0.12) (tstamp ebf2ee9a-0ab7-484d-a3e9-ed42321e118c))
  (fp_line (start 5 2.3) (end 5 1.8) (layer "F.SilkS") (width 0.12) (tstamp ec3ba967-5672-4df3-8e36-6c18ceabef1b))
  (fp_line (start 22.9 2.3) (end 22.9 1.8) (layer "F.SilkS") (width 0.12) (tstamp f0cf7f1a-5746-41af-9265-936a5290f89f))
  (fp_line (start 10.9 1.8) (end 11.1 1.8) (layer "F.SilkS") (width 0.12) (tstamp f171d3d6-3996-46e9-afa5-ff63c8b47380))
  (fp_line (start 0.5 -1.81) (end 0.5 -1.2) (layer "F.SilkS") (width 0.12) (tstamp f39a1c94-9082-4fa6-8e25-8b49605cc360))
  (fp_line (start 17.1 1.8) (end 17.1 2.3) (layer "F.SilkS") (width 0.12) (tstamp fbc619d4-a177-409d-b1a8-1106dd5ac4e0))
  (fp_line (start 26.45 3.3) (end 26.45 -2.2) (layer "F.CrtYd") (width 0.05) (tstamp 2319c410-9f8f-4f97-a894-e5e2120e242f))
  (fp_line (start 26.45 -2.2) (end -2.45 -2.2) (layer "F.CrtYd") (width 0.05) (tstamp 4d526e2f-3c54-4e28-b519-96bf620e54c2))
  (fp_line (start -2.45 3.3) (end 26.45 3.3) (layer "F.CrtYd") (width 0.05) (tstamp b7a26754-aaf8-4b6e-9983-8c01bb042ad6))
  (fp_line (start -2.45 -2.2) (end -2.45 3.3) (layer "F.CrtYd") (width 0.05) (tstamp c71d2572-2bcc-4782-a702-8f8db7400438))
  (fp_line (start -1.11 -2.11) (end -2.36 -2.11) (layer "F.Fab") (width 0.1) (tstamp 1cd00462-49af-49a6-8935-4e7fc5d07188))
  (fp_line (start 25.95 -1.7) (end -1.95 -1.7) (layer "F.Fab") (width 0.1) (tstamp 1e26447c-bfa9-4946-ae19-a8808c2f0e11))
  (fp_line (start 25.95 2.8) (end 25.95 -1.7) (layer "F.Fab") (width 0.1) (tstamp 58c9602c-e189-4768-ae56-46f557b7498d))
  (fp_line (start -1.95 -1.7) (end -1.95 2.8) (layer "F.Fab") (width 0.1) (tstamp 5f3c146e-0754-40f2-a26c-b2f76b5938ec))
  (fp_line (start -2.36 -2.11) (end -2.36 -0.86) (layer "F.Fab") (width 0.1) (tstamp aef9c1f4-f321-4e31-8b0e-61848fcf0d7a))
  (fp_line (start -1.95 2.8) (end 25.95 2.8) (layer "F.Fab") (width 0.1) (tstamp c19bcc35-4ca7-45f5-81fa-284c6afe3b15))
  (pad "1" thru_hole roundrect (at 0 0) (size 1.2 1.75) (drill 0.75) (layers *.Cu *.Mask) (roundrect_rratio 0.208333) (tstamp 0aefde1b-0202-4941-9e1c-d6dca17cb1ec))
  (pad "2" thru_hole oval (at 2 0) (size 1.2 1.75) (drill 0.75) (layers *.Cu *.Mask) (tstamp 87e08049-53e9-4c43-96be-207b8a98673d))
  (pad "3" thru_hole oval (at 4 0) (size 1.2 1.75) (drill 0.75) (layers *.Cu *.Mask) (tstamp 80a24c1b-7468-42bd-a83b-cc5330173b05))
  (pad "4" thru_hole oval (at 6 0) (size 1.2 1.75) (drill 0.75) (layers *.Cu *.Mask) (tstamp bb5d05d9-9dd4-4ab5-b12b-0f07fac3327f))
  (pad "5" thru_hole oval (at 8 0) (size 1.2 1.75) (drill 0.75) (layers *.Cu *.Mask) (tstamp e912f79d-2629-4016-9fc2-3a28ba62aa36))
  (pad "6" thru_hole oval (at 10 0) (size 1.2 1.75) (drill 0.75) (layers *.Cu *.Mask) (tstamp 5f112039-a97f-4fc7-806e-e45ca5f74473))
  (pad "7" thru_hole oval (at 12 0) (size 1.2 1.75) (drill 0.75) (layers *.Cu *.Mask) (tstamp e3b6de1f-1bc4-48c7-bd00-9b67658ac7d0))
  (pad "8" thru_hole oval (at 14 0) (size 1.2 1.75) (drill 0.75) (layers *.Cu *.Mask) (tstamp 35980b9e-1e19-4faa-86f6-8f82042c1591))
  (pad "9" thru_hole oval (at 16 0) (size 1.2 1.75) (drill 0.75) (layers *.Cu *.Mask) (tstamp fbdc13a6-5779-46ed-9948-bb04c0d8fe08))
  (pad "10" thru_hole oval (at 18 0) (size 1.2 1.75) (drill 0.75) (layers *.Cu *.Mask) (tstamp bc0a3600-2ce6-4dec-aa5a-26bb4719fac2))
  (pad "11" thru_hole oval (at 20 0) (size 1.2 1.75) (drill 0.75) (layers *.Cu *.Mask) (tstamp 9aaaa7d4-d4ab-4ca0-bf7c-0270ddec00f6))
  (pad "12" thru_hole oval (at 22 0) (size 1.2 1.75) (drill 0.75) (layers *.Cu *.Mask) (tstamp e40af20c-b852-41eb-84d6-70b901036802))
  (pad "13" thru_hole oval (at 24 0) (size 1.2 1.75) (drill 0.75) (layers *.Cu *.Mask) (tstamp 6313cee6-de9c-428d-b954-3d538bf2a8f7))
  (model "${KICAD6_3DMODEL_DIR}/Connector_JST.3dshapes/JST_PH_B13B-PH-K_1x13_P2.00mm_Vertical.wrl"
    (offset (xyz 0 0 0))
    (scale (xyz 1 1 1))
    (rotate (xyz 0 0 0))
  )
)
