(footprint "IC_BGA176C50P17X17_900X900X98" (version 20211014) (generator pcbnew)
  (layer "F.Cu")
  (tedit 61C8F7F6)
  (descr "VFBGA 176*")
  (tags "Integrated Circuit")
  (attr smd)
  (fp_text reference "IC**" (at 0 0) (layer "F.SilkS")
    (effects (font (size 1.27 1.27) (thickness 0.254)))
    (tstamp bbeb5660-87a7-4a13-be2a-0981978dab67)
  )
  (fp_text value "BGA176C50P17X17_900X900X98" (at 0 0) (layer "F.SilkS") hide
    (effects (font (size 1.27 1.27) (thickness 0.254)))
    (tstamp bf846e30-5aad-4cd9-8d75-caabbac7227c)
  )
  (fp_text user "${REFERENCE}" (at 0 0) (layer "F.Fab")
    (effects (font (size 1.27 1.27) (thickness 0.254)))
    (tstamp 4c0f28bd-4fdd-4e3f-866b-0af6e20563d6)
  )
  (fp_line (start 4.511 -4.511) (end 4.511 4.511) (layer "F.SilkS") (width 0.2) (tstamp 364ea6d5-81d6-485d-af85-ad66a6d4fe3f))
  (fp_line (start -4.511 4.511) (end -4.511 -4) (layer "F.SilkS") (width 0.2) (tstamp 63775781-01d0-47bd-b139-79a50fca0217))
  (fp_line (start -4.511 -4) (end -4 -4.511) (layer "F.SilkS") (width 0.2) (tstamp 7ad6feb3-63ea-46ec-b067-a29f12685067))
  (fp_line (start -4 -4.511) (end 4.511 -4.511) (layer "F.SilkS") (width 0.2) (tstamp cd1ad6f7-f841-4643-bb04-2e14949559d5))
  (fp_line (start 4.511 4.511) (end -4.511 4.511) (layer "F.SilkS") (width 0.2) (tstamp ce9f22c6-5cf9-49f9-93e7-eee91fc8e787))
  (fp_circle (center -4.511 -4.511) (end -4.511 -4.411) (layer "F.SilkS") (width 0.2) (fill none) (tstamp 3212fb31-6c72-4476-a39a-a9c0b82ecb0b))
  (fp_line (start 5.5 -5.5) (end 5.5 5.5) (layer "F.CrtYd") (width 0.05) (tstamp 1d5dd387-4f70-4c11-b1a3-f6e6760c186d))
  (fp_line (start 5.5 5.5) (end -5.5 5.5) (layer "F.CrtYd") (width 0.05) (tstamp 21dbf739-195a-41eb-a010-3ab734d0ed32))
  (fp_line (start -5.5 -5.5) (end 5.5 -5.5) (layer "F.CrtYd") (width 0.05) (tstamp e85a0c7c-4e23-42e7-a5bc-06fab7abaed3))
  (fp_line (start -5.5 5.5) (end -5.5 -5.5) (layer "F.CrtYd") (width 0.05) (tstamp fac4059d-8c6c-49b6-af4c-aa836999c541))
  (fp_line (start 4.5 4.5) (end -4.5 4.5) (layer "F.Fab") (width 0.1) (tstamp 2e5d3ab8-b68c-4b59-bdd1-f894fad8dda7))
  (fp_line (start 4.5 -4.5) (end 4.5 4.5) (layer "F.Fab") (width 0.1) (tstamp 431b662a-2cf2-490e-b264-a23ba33824ec))
  (fp_line (start -4.5 4.5) (end -4.5 -4.5) (layer "F.Fab") (width 0.1) (tstamp 92b4c6e4-d408-4663-9c41-f19c648a4d44))
  (fp_line (start -4.5 -4.5) (end 4.5 -4.5) (layer "F.Fab") (width 0.1) (tstamp c45ca1ab-50a8-4158-9b8e-86eb478b26b1))
  (fp_line (start -4.5 -2.25) (end -2.25 -4.5) (layer "F.Fab") (width 0.1) (tstamp d312c3c8-dcc0-4a57-948f-6745a5be5874))
  (pad "A1" smd circle (at -4 -4 90) (size 0.322 0.322) (layers "F.Cu" "F.Paste" "F.Mask") (tstamp e1c0c6c6-b3b3-40e5-a360-e72354beee77))
  (pad "A2" smd circle (at -3.5 -4 90) (size 0.322 0.322) (layers "F.Cu" "F.Paste" "F.Mask") (tstamp edfc2908-bbe7-4d31-aa93-c89010a82905))
  (pad "A3" smd circle (at -3 -4 90) (size 0.322 0.322) (layers "F.Cu" "F.Paste" "F.Mask") (tstamp d451e9b1-3f67-493d-b37d-3ac03d60cd9a))
  (pad "A5" smd circle (at -2 -4 90) (size 0.322 0.322) (layers "F.Cu" "F.Paste" "F.Mask") (tstamp 6cebb2af-5fdc-4ed2-9418-7a7f26098578))
  (pad "A7" smd circle (at -1 -4 90) (size 0.322 0.322) (layers "F.Cu" "F.Paste" "F.Mask") (tstamp 44eed970-a9fc-4aa2-8580-53ec48d3164f))
  (pad "A9" smd circle (at 0 -4 90) (size 0.322 0.322) (layers "F.Cu" "F.Paste" "F.Mask") (tstamp fa692854-dd08-41fa-b134-218ab0c1ae8e))
  (pad "A11" smd circle (at 1 -4 90) (size 0.322 0.322) (layers "F.Cu" "F.Paste" "F.Mask") (tstamp 859fa990-074f-476f-a2b6-3459a533bc62))
  (pad "A13" smd circle (at 2 -4 90) (size 0.322 0.322) (layers "F.Cu" "F.Paste" "F.Mask") (tstamp b05c41f7-50e4-4be4-ab67-3c7ffa450fd9))
  (pad "A15" smd circle (at 3 -4 90) (size 0.322 0.322) (layers "F.Cu" "F.Paste" "F.Mask") (tstamp 54a7abe1-8066-477e-b365-e47d727a6272))
  (pad "A16" smd circle (at 3.5 -4 90) (size 0.322 0.322) (layers "F.Cu" "F.Paste" "F.Mask") (tstamp ea28b0b6-85f9-44a4-9a9d-13615241f1cc))
  (pad "A17" smd circle (at 4 -4 90) (size 0.322 0.322) (layers "F.Cu" "F.Paste" "F.Mask") (tstamp 73c1eee2-05c6-471c-a3e5-93be837b155c))
  (pad "B1" smd circle (at -4 -3.5 90) (size 0.322 0.322) (layers "F.Cu" "F.Paste" "F.Mask") (tstamp 8ac833de-53d8-418b-a186-aa3f0694de1b))
  (pad "B2" smd circle (at -3.5 -3.5 90) (size 0.322 0.322) (layers "F.Cu" "F.Paste" "F.Mask") (tstamp 064fc4ee-d447-4559-baca-3d06449176e8))
  (pad "B3" smd circle (at -3 -3.5 90) (size 0.322 0.322) (layers "F.Cu" "F.Paste" "F.Mask") (tstamp 1c1e93c8-4588-40f4-bfc3-97272164156b))
  (pad "B5" smd circle (at -2 -3.5 90) (size 0.322 0.322) (layers "F.Cu" "F.Paste" "F.Mask") (tstamp d5d8c012-24f8-42aa-b8fa-07dbf7136148))
  (pad "B6" smd circle (at -1.5 -3.5 90) (size 0.322 0.322) (layers "F.Cu" "F.Paste" "F.Mask") (tstamp 8e44d28a-a092-48bf-81b3-e4844a145186))
  (pad "B7" smd circle (at -1 -3.5 90) (size 0.322 0.322) (layers "F.Cu" "F.Paste" "F.Mask") (tstamp d8503d24-df59-4a5f-8e0e-20119d065b4c))
  (pad "B9" smd circle (at 0 -3.5 90) (size 0.322 0.322) (layers "F.Cu" "F.Paste" "F.Mask") (tstamp 4cad5035-5ed2-4871-8f99-31584cd9132c))
  (pad "B10" smd circle (at 0.5 -3.5 90) (size 0.322 0.322) (layers "F.Cu" "F.Paste" "F.Mask") (tstamp a5602f92-2b5f-43c3-84b0-69d555d94241))
  (pad "B11" smd circle (at 1 -3.5 90) (size 0.322 0.322) (layers "F.Cu" "F.Paste" "F.Mask") (tstamp 6a31b2f2-c10c-4a82-a753-d38bc51e4c05))
  (pad "B13" smd circle (at 2 -3.5 90) (size 0.322 0.322) (layers "F.Cu" "F.Paste" "F.Mask") (tstamp 203090e4-55b5-4296-8f59-81cdb9f4e79b))
  (pad "B14" smd circle (at 2.5 -3.5 90) (size 0.322 0.322) (layers "F.Cu" "F.Paste" "F.Mask") (tstamp 5ca1b324-fc5b-439a-8b2a-ce6855b516ee))
  (pad "B15" smd circle (at 3 -3.5 90) (size 0.322 0.322) (layers "F.Cu" "F.Paste" "F.Mask") (tstamp a07bda2c-93ba-4689-93f8-43840d42c864))
  (pad "B16" smd circle (at 3.5 -3.5 90) (size 0.322 0.322) (layers "F.Cu" "F.Paste" "F.Mask") (tstamp 47e68a06-ffc8-4873-ba3b-58c862c6e9a7))
  (pad "B17" smd circle (at 4 -3.5 90) (size 0.322 0.322) (layers "F.Cu" "F.Paste" "F.Mask") (tstamp 103b4ca3-1110-46aa-93fd-e3875234271d))
  (pad "C1" smd circle (at -4 -3 90) (size 0.322 0.322) (layers "F.Cu" "F.Paste" "F.Mask") (tstamp 9d3c1022-ada3-49c3-adf4-0b469f7333d8))
  (pad "C2" smd circle (at -3.5 -3 90) (size 0.322 0.322) (layers "F.Cu" "F.Paste" "F.Mask") (tstamp fc796df7-838b-4292-a482-85848115cd74))
  (pad "C3" smd circle (at -3 -3 90) (size 0.322 0.322) (layers "F.Cu" "F.Paste" "F.Mask") (tstamp a3df867f-e009-4422-a170-0c49a469e745))
  (pad "C4" smd circle (at -2.5 -3 90) (size 0.322 0.322) (layers "F.Cu" "F.Paste" "F.Mask") (tstamp 36ff2052-b6f0-4838-a916-4bedc84b217a))
  (pad "C5" smd circle (at -2 -3 90) (size 0.322 0.322) (layers "F.Cu" "F.Paste" "F.Mask") (tstamp bcbddad0-7fad-4cd6-8dd1-d1d4f8020323))
  (pad "C7" smd circle (at -1 -3 90) (size 0.322 0.322) (layers "F.Cu" "F.Paste" "F.Mask") (tstamp 95e669ed-a642-4381-9630-64c363821dfe))
  (pad "C9" smd circle (at 0 -3 90) (size 0.322 0.322) (layers "F.Cu" "F.Paste" "F.Mask") (tstamp b4c641b6-91f2-4abf-b7e4-ff0240c3f754))
  (pad "C11" smd circle (at 1 -3 90) (size 0.322 0.322) (layers "F.Cu" "F.Paste" "F.Mask") (tstamp 2d223460-6658-42b5-b08b-2bf056889d10))
  (pad "C13" smd circle (at 2 -3 90) (size 0.322 0.322) (layers "F.Cu" "F.Paste" "F.Mask") (tstamp 9936fe82-f39e-4423-a3ae-78602fa02de5))
  (pad "C15" smd circle (at 3 -3 90) (size 0.322 0.322) (layers "F.Cu" "F.Paste" "F.Mask") (tstamp 69f7e994-da43-4348-9c0e-bb13714720ce))
  (pad "C16" smd circle (at 3.5 -3 90) (size 0.322 0.322) (layers "F.Cu" "F.Paste" "F.Mask") (tstamp 98b66d6c-56aa-4836-8f0e-d0c01afd2d31))
  (pad "C17" smd circle (at 4 -3 90) (size 0.322 0.322) (layers "F.Cu" "F.Paste" "F.Mask") (tstamp 67ca468e-b95c-4f2d-835c-6f25a3102c44))
  (pad "D2" smd circle (at -3.5 -2.5 90) (size 0.322 0.322) (layers "F.Cu" "F.Paste" "F.Mask") (tstamp d9eacd31-7f3c-4255-9b20-0af22ae5fcdc))
  (pad "D5" smd circle (at -2 -2.5 90) (size 0.322 0.322) (layers "F.Cu" "F.Paste" "F.Mask") (tstamp 8d9303c6-3404-40bf-8ab8-63c7f9648292))
  (pad "D6" smd circle (at -1.5 -2.5 90) (size 0.322 0.322) (layers "F.Cu" "F.Paste" "F.Mask") (tstamp 82a47c8c-2764-4c77-8b86-e6b0f871e602))
  (pad "D7" smd circle (at -1 -2.5 90) (size 0.322 0.322) (layers "F.Cu" "F.Paste" "F.Mask") (tstamp bc95d16a-d5e2-4520-b1cb-50b501d7bc33))
  (pad "D8" smd circle (at -0.5 -2.5 90) (size 0.322 0.322) (layers "F.Cu" "F.Paste" "F.Mask") (tstamp 6da1bca9-a172-448f-b9cd-cd0d2a399cb6))
  (pad "D9" smd circle (at 0 -2.5 90) (size 0.322 0.322) (layers "F.Cu" "F.Paste" "F.Mask") (tstamp dc4521ca-d1c3-45ae-ba8c-684a1c8feba3))
  (pad "D11" smd circle (at 1 -2.5 90) (size 0.322 0.322) (layers "F.Cu" "F.Paste" "F.Mask") (tstamp d96f301c-5db2-400f-bcb1-74e29d660700))
  (pad "D12" smd circle (at 1.5 -2.5 90) (size 0.322 0.322) (layers "F.Cu" "F.Paste" "F.Mask") (tstamp d8fbfc94-1654-403c-a92f-f39f91b311ce))
  (pad "D13" smd circle (at 2 -2.5 90) (size 0.322 0.322) (layers "F.Cu" "F.Paste" "F.Mask") (tstamp 1f65c11d-1c25-402a-b9df-a63ce5ad4069))
  (pad "D15" smd circle (at 3 -2.5 90) (size 0.322 0.322) (layers "F.Cu" "F.Paste" "F.Mask") (tstamp 4f2327fe-bafc-44ad-a2fc-b9dad2d09884))
  (pad "E1" smd circle (at -4 -2 90) (size 0.322 0.322) (layers "F.Cu" "F.Paste" "F.Mask") (tstamp a1f804e9-26ef-4b44-b093-21abd22389b4))
  (pad "E2" smd circle (at -3.5 -2 90) (size 0.322 0.322) (layers "F.Cu" "F.Paste" "F.Mask") (tstamp 50d814c8-1fd5-4a17-9c0f-8be9586b07ae))
  (pad "E3" smd circle (at -3 -2 90) (size 0.322 0.322) (layers "F.Cu" "F.Paste" "F.Mask") (tstamp be49a632-907f-41ee-b13a-8db79b97815a))
  (pad "E4" smd circle (at -2.5 -2 90) (size 0.322 0.322) (layers "F.Cu" "F.Paste" "F.Mask") (tstamp d24fa136-4598-4aef-8742-bfb5c4659871))
  (pad "E6" smd circle (at -1.5 -2 90) (size 0.322 0.322) (layers "F.Cu" "F.Paste" "F.Mask") (tstamp cc2b40bb-0a46-4dc6-87bb-cd71989c6507))
  (pad "E8" smd circle (at -0.5 -2 90) (size 0.322 0.322) (layers "F.Cu" "F.Paste" "F.Mask") (tstamp 530ea5dd-2214-47e4-9d8d-bdc5ea3c7e8b))
  (pad "E10" smd circle (at 0.5 -2 90) (size 0.322 0.322) (layers "F.Cu" "F.Paste" "F.Mask") (tstamp e5e0bc31-aff6-411b-ab61-d56d9071460b))
  (pad "E12" smd circle (at 1.5 -2 90) (size 0.322 0.322) (layers "F.Cu" "F.Paste" "F.Mask") (tstamp f8118613-992f-4072-a894-292c8912aecf))
  (pad "E14" smd circle (at 2.5 -2 90) (size 0.322 0.322) (layers "F.Cu" "F.Paste" "F.Mask") (tstamp e5e79495-b4dc-46b0-953d-bf53907e0d7c))
  (pad "E15" smd circle (at 3 -2 90) (size 0.322 0.322) (layers "F.Cu" "F.Paste" "F.Mask") (tstamp dc1439d3-176e-4c94-8794-1ebe8a1cb66d))
  (pad "E16" smd circle (at 3.5 -2 90) (size 0.322 0.322) (layers "F.Cu" "F.Paste" "F.Mask") (tstamp 3278ec01-4ed0-4b9c-9711-d1c404b877cd))
  (pad "E17" smd circle (at 4 -2 90) (size 0.322 0.322) (layers "F.Cu" "F.Paste" "F.Mask") (tstamp 368ebe28-686c-40c8-b219-8295ca218c67))
  (pad "F4" smd circle (at -2.5 -1.5 90) (size 0.322 0.322) (layers "F.Cu" "F.Paste" "F.Mask") (tstamp 983c63fc-d0ee-414d-9b93-84028ccad127))
  (pad "F5" smd circle (at -2 -1.5 90) (size 0.322 0.322) (layers "F.Cu" "F.Paste" "F.Mask") (tstamp 93de166e-c098-4d36-9c23-0b735e0c402f))
  (pad "F7" smd circle (at -1 -1.5 90) (size 0.322 0.322) (layers "F.Cu" "F.Paste" "F.Mask") (tstamp 53e66112-2768-4f87-a3a4-327d4bbba91b))
  (pad "F11" smd circle (at 1 -1.5 90) (size 0.322 0.322) (layers "F.Cu" "F.Paste" "F.Mask") (tstamp 58ec4516-a1ab-4954-8f80-b0ba85beca82))
  (pad "F13" smd circle (at 2 -1.5 90) (size 0.322 0.322) (layers "F.Cu" "F.Paste" "F.Mask") (tstamp 1e241255-1934-468e-ba56-ec740a91e5f2))
  (pad "F14" smd circle (at 2.5 -1.5 90) (size 0.322 0.322) (layers "F.Cu" "F.Paste" "F.Mask") (tstamp a899b179-b86c-45b0-8a6e-1c7aa4ee7e73))
  (pad "F16" smd circle (at 3.5 -1.5 90) (size 0.322 0.322) (layers "F.Cu" "F.Paste" "F.Mask") (tstamp 8b69b160-8432-412c-b764-d1ff6f5faaf8))
  (pad "G1" smd circle (at -4 -1 90) (size 0.322 0.322) (layers "F.Cu" "F.Paste" "F.Mask") (tstamp dea83fa6-d8fd-4b2d-92ed-580f5767e39d))
  (pad "G2" smd circle (at -3.5 -1 90) (size 0.322 0.322) (layers "F.Cu" "F.Paste" "F.Mask") (tstamp 8e2a452e-44d4-4748-a255-ed61b35a9a2c))
  (pad "G3" smd circle (at -3 -1 90) (size 0.322 0.322) (layers "F.Cu" "F.Paste" "F.Mask") (tstamp 12728481-4f6b-4b9f-a3cf-5fe5a4933fca))
  (pad "G4" smd circle (at -2.5 -1 90) (size 0.322 0.322) (layers "F.Cu" "F.Paste" "F.Mask") (tstamp a828dc48-d201-41b6-bcc6-36942c2904ee))
  (pad "G6" smd circle (at -1.5 -1 90) (size 0.322 0.322) (layers "F.Cu" "F.Paste" "F.Mask") (tstamp f1c921fe-6ced-409b-abf1-0aef174ffaa5))
  (pad "G12" smd circle (at 1.5 -1 90) (size 0.322 0.322) (layers "F.Cu" "F.Paste" "F.Mask") (tstamp d42bb08a-c8fe-407c-98db-c2bb2c3e67d8))
  (pad "G14" smd circle (at 2.5 -1 90) (size 0.322 0.322) (layers "F.Cu" "F.Paste" "F.Mask") (tstamp 85c459e8-5920-4ed2-bb5f-8beef7cc43fa))
  (pad "G15" smd circle (at 3 -1 90) (size 0.322 0.322) (layers "F.Cu" "F.Paste" "F.Mask") (tstamp 8d2ad047-de60-467d-8770-7fbc14670141))
  (pad "G16" smd circle (at 3.5 -1 90) (size 0.322 0.322) (layers "F.Cu" "F.Paste" "F.Mask") (tstamp 0fc94264-4f85-4bd0-bf70-5fc86541c23b))
  (pad "G17" smd circle (at 4 -1 90) (size 0.322 0.322) (layers "F.Cu" "F.Paste" "F.Mask") (tstamp 80df7605-175e-43be-b3dd-c11574dc96e8))
  (pad "H2" smd circle (at -3.5 -0.5 90) (size 0.322 0.322) (layers "F.Cu" "F.Paste" "F.Mask") (tstamp 0ecb243e-2cbe-4124-829e-d247e62691d7))
  (pad "H5" smd circle (at -2 -0.5 90) (size 0.322 0.322) (layers "F.Cu" "F.Paste" "F.Mask") (tstamp de24c447-8775-4eb8-aa36-c3535149a263))
  (pad "H8" smd circle (at -0.5 -0.5 90) (size 0.322 0.322) (layers "F.Cu" "F.Paste" "F.Mask") (tstamp 2090c8b2-4624-4ad2-9556-bf500a4f50f9))
  (pad "H9" smd circle (at 0 -0.5 90) (size 0.322 0.322) (layers "F.Cu" "F.Paste" "F.Mask") (tstamp 75ffc2e5-269f-4ddc-a089-469c6d2390a0))
  (pad "H10" smd circle (at 0.5 -0.5 90) (size 0.322 0.322) (layers "F.Cu" "F.Paste" "F.Mask") (tstamp c7299834-d1dd-4ac9-96ed-89f2af81c86c))
  (pad "H13" smd circle (at 2 -0.5 90) (size 0.322 0.322) (layers "F.Cu" "F.Paste" "F.Mask") (tstamp e6485193-adc9-4c2c-a52b-2f24171b5428))
  (pad "H14" smd circle (at 2.5 -0.5 90) (size 0.322 0.322) (layers "F.Cu" "F.Paste" "F.Mask") (tstamp 086ca953-977d-4699-95a4-445af35df2d6))
  (pad "J1" smd circle (at -4 0 90) (size 0.322 0.322) (layers "F.Cu" "F.Paste" "F.Mask") (tstamp f7a55392-2387-4bef-b4ec-97b1901e4826))
  (pad "J2" smd circle (at -3.5 0 90) (size 0.322 0.322) (layers "F.Cu" "F.Paste" "F.Mask") (tstamp 0bea6075-0d53-4edf-85e1-a44be8783b42))
  (pad "J3" smd circle (at -3 0 90) (size 0.322 0.322) (layers "F.Cu" "F.Paste" "F.Mask") (tstamp e681d2c1-d9cd-4a63-9864-fffb7238a265))
  (pad "J4" smd circle (at -2.5 0 90) (size 0.322 0.322) (layers "F.Cu" "F.Paste" "F.Mask") (tstamp b85f8c73-19f2-44f2-9443-5936ad5dc890))
  (pad "J8" smd circle (at -0.5 0 90) (size 0.322 0.322) (layers "F.Cu" "F.Paste" "F.Mask") (tstamp 77cf97a8-733f-4844-b739-32296b0bf70e))
  (pad "J10" smd circle (at 0.5 0 90) (size 0.322 0.322) (layers "F.Cu" "F.Paste" "F.Mask") (tstamp 1faae0b3-000f-4a5b-98b6-e693a547e9a8))
  (pad "J14" smd circle (at 2.5 0 90) (size 0.322 0.322) (layers "F.Cu" "F.Paste" "F.Mask") (tstamp 9dbac948-b489-471f-bb28-c108b83fe088))
  (pad "J15" smd circle (at 3 0 90) (size 0.322 0.322) (layers "F.Cu" "F.Paste" "F.Mask") (tstamp 9291be3e-f07e-489b-8cee-2fa887e19ffd))
  (pad "J16" smd circle (at 3.5 0 90) (size 0.322 0.322) (layers "F.Cu" "F.Paste" "F.Mask") (tstamp ff10a540-c78d-4882-a674-b277aa25339e))
  (pad "J17" smd circle (at 4 0 90) (size 0.322 0.322) (layers "F.Cu" "F.Paste" "F.Mask") (tstamp ccd620d0-8d9e-4a36-8793-bf4f0ef523c7))
  (pad "K4" smd circle (at -2.5 0.5 90) (size 0.322 0.322) (layers "F.Cu" "F.Paste" "F.Mask") (tstamp 1b7b242f-fb67-4deb-a0f9-568f61151c20))
  (pad "K5" smd circle (at -2 0.5 90) (size 0.322 0.322) (layers "F.Cu" "F.Paste" "F.Mask") (tstamp 0f557538-0bf2-437d-a87f-f5319c042df8))
  (pad "K8" smd circle (at -0.5 0.5 90) (size 0.322 0.322) (layers "F.Cu" "F.Paste" "F.Mask") (tstamp 158bb94f-3490-4c8e-b4a3-1ca7bfd649dc))
  (pad "K9" smd circle (at 0 0.5 90) (size 0.322 0.322) (layers "F.Cu" "F.Paste" "F.Mask") (tstamp 1711ae5f-ce0e-4a66-8a10-4ed3cd14ff01))
  (pad "K10" smd circle (at 0.5 0.5 90) (size 0.322 0.322) (layers "F.Cu" "F.Paste" "F.Mask") (tstamp 2b210e7c-9bd1-420d-830d-76de98601db9))
  (pad "K13" smd circle (at 2 0.5 90) (size 0.322 0.322) (layers "F.Cu" "F.Paste" "F.Mask") (tstamp c3c7db9b-65b6-4cc9-8b22-92d84a96181d))
  (pad "K16" smd circle (at 3.5 0.5 90) (size 0.322 0.322) (layers "F.Cu" "F.Paste" "F.Mask") (tstamp 38a93a09-6a8b-4819-ac8e-9c6f13062e58))
  (pad "L1" smd circle (at -4 1 90) (size 0.322 0.322) (layers "F.Cu" "F.Paste" "F.Mask") (tstamp 2dc8a6e4-736f-4427-8361-884de6f5a80b))
  (pad "L2" smd circle (at -3.5 1 90) (size 0.322 0.322) (layers "F.Cu" "F.Paste" "F.Mask") (tstamp de196656-b1eb-4408-9ab2-cf7f11cf205e))
  (pad "L3" smd circle (at -3 1 90) (size 0.322 0.322) (layers "F.Cu" "F.Paste" "F.Mask") (tstamp 2f568f4d-c797-4b83-ae99-7c302d786987))
  (pad "L4" smd circle (at -2.5 1 90) (size 0.322 0.322) (layers "F.Cu" "F.Paste" "F.Mask") (tstamp 7dcf8ba3-e6a6-4797-a5fa-81a57fa73b0f))
  (pad "L6" smd circle (at -1.5 1 90) (size 0.322 0.322) (layers "F.Cu" "F.Paste" "F.Mask") (tstamp b69cb607-e721-4e82-932c-749619a5f51b))
  (pad "L12" smd circle (at 1.5 1 90) (size 0.322 0.322) (layers "F.Cu" "F.Paste" "F.Mask") (tstamp 9879a8a8-b664-4414-bdd6-1a12a279d87c))
  (pad "L14" smd circle (at 2.5 1 90) (size 0.322 0.322) (layers "F.Cu" "F.Paste" "F.Mask") (tstamp 0702dee1-f861-4e50-8252-7cb53e6d3259))
  (pad "L15" smd circle (at 3 1 90) (size 0.322 0.322) (layers "F.Cu" "F.Paste" "F.Mask") (tstamp 31757a82-5be6-49f4-8469-6fd1f19a4831))
  (pad "L16" smd circle (at 3.5 1 90) (size 0.322 0.322) (layers "F.Cu" "F.Paste" "F.Mask") (tstamp 4dc08b0e-cf74-4295-b811-c24343b38bbd))
  (pad "L17" smd circle (at 4 1 90) (size 0.322 0.322) (layers "F.Cu" "F.Paste" "F.Mask") (tstamp dd00503d-8df4-435b-bfc3-85ca3fa156c1))
  (pad "M2" smd circle (at -3.5 1.5 90) (size 0.322 0.322) (layers "F.Cu" "F.Paste" "F.Mask") (tstamp c7a8a931-be51-41e0-9536-14da5c4b0f5f))
  (pad "M4" smd circle (at -2.5 1.5 90) (size 0.322 0.322) (layers "F.Cu" "F.Paste" "F.Mask") (tstamp b34dc6ff-1aa7-46bb-a6de-a88fbd693f57))
  (pad "M5" smd circle (at -2 1.5 90) (size 0.322 0.322) (layers "F.Cu" "F.Paste" "F.Mask") (tstamp ff164f5f-b65f-4b7d-ba28-85fe41257652))
  (pad "M7" smd circle (at -1 1.5 90) (size 0.322 0.322) (layers "F.Cu" "F.Paste" "F.Mask") (tstamp cd5690a3-890c-4d22-9010-3d73ae7c1982))
  (pad "M11" smd circle (at 1 1.5 90) (size 0.322 0.322) (layers "F.Cu" "F.Paste" "F.Mask") (tstamp 4a1889be-7ec6-405b-ae5a-773fc21e97e9))
  (pad "M13" smd circle (at 2 1.5 90) (size 0.322 0.322) (layers "F.Cu" "F.Paste" "F.Mask") (tstamp 0e31ffcf-99fb-4275-800d-d27579fe3735))
  (pad "M14" smd circle (at 2.5 1.5 90) (size 0.322 0.322) (layers "F.Cu" "F.Paste" "F.Mask") (tstamp fe202bbd-94bd-4c8c-9c9b-6c8c8bf4cae1))
  (pad "N1" smd circle (at -4 2 90) (size 0.322 0.322) (layers "F.Cu" "F.Paste" "F.Mask") (tstamp af3c4291-4f9b-4bb8-9e36-5ee3fcee3e08))
  (pad "N2" smd circle (at -3.5 2 90) (size 0.322 0.322) (layers "F.Cu" "F.Paste" "F.Mask") (tstamp 384f7937-c989-48ca-815c-ca9cd9549604))
  (pad "N3" smd circle (at -3 2 90) (size 0.322 0.322) (layers "F.Cu" "F.Paste" "F.Mask") (tstamp a86c0538-075e-45a8-b87e-cdc35a79de0e))
  (pad "N4" smd circle (at -2.5 2 90) (size 0.322 0.322) (layers "F.Cu" "F.Paste" "F.Mask") (tstamp c9030bbb-4170-4ed3-8bce-43ada0cd308b))
  (pad "N6" smd circle (at -1.5 2 90) (size 0.322 0.322) (layers "F.Cu" "F.Paste" "F.Mask") (tstamp 4fdb7677-df09-4b9c-9e53-fc4088a7c589))
  (pad "N8" smd circle (at -0.5 2 90) (size 0.322 0.322) (layers "F.Cu" "F.Paste" "F.Mask") (tstamp 48e8d634-1608-4cd1-814c-418fcd84837c))
  (pad "N10" smd circle (at 0.5 2 90) (size 0.322 0.322) (layers "F.Cu" "F.Paste" "F.Mask") (tstamp e154bec5-9df5-43f9-9ce6-aa91c2497a87))
  (pad "N12" smd circle (at 1.5 2 90) (size 0.322 0.322) (layers "F.Cu" "F.Paste" "F.Mask") (tstamp b7bad381-ab72-4dc6-9a34-75ef89e1c31a))
  (pad "N14" smd circle (at 2.5 2 90) (size 0.322 0.322) (layers "F.Cu" "F.Paste" "F.Mask") (tstamp f830a66f-e2ef-4b7e-9edf-b7c190c62646))
  (pad "N15" smd circle (at 3 2 90) (size 0.322 0.322) (layers "F.Cu" "F.Paste" "F.Mask") (tstamp 9746f069-e80a-452b-8989-f5c64c16ba95))
  (pad "N16" smd circle (at 3.5 2 90) (size 0.322 0.322) (layers "F.Cu" "F.Paste" "F.Mask") (tstamp 7e154768-f00c-476d-8133-de5947560eb9))
  (pad "N17" smd circle (at 4 2 90) (size 0.322 0.322) (layers "F.Cu" "F.Paste" "F.Mask") (tstamp b3568ee3-7644-45e4-94bd-e50c1166aa1c))
  (pad "P3" smd circle (at -3 2.5 90) (size 0.322 0.322) (layers "F.Cu" "F.Paste" "F.Mask") (tstamp aa7c0a7c-9074-484b-9343-5acf98c9bf0a))
  (pad "P5" smd circle (at -2 2.5 90) (size 0.322 0.322) (layers "F.Cu" "F.Paste" "F.Mask") (tstamp ff29d671-98a4-4862-895e-468b5261580f))
  (pad "P6" smd circle (at -1.5 2.5 90) (size 0.322 0.322) (layers "F.Cu" "F.Paste" "F.Mask") (tstamp bd7aa977-0679-474b-8d61-d81fd6aed2f9))
  (pad "P7" smd circle (at -1 2.5 90) (size 0.322 0.322) (layers "F.Cu" "F.Paste" "F.Mask") (tstamp 71c40540-5eb3-4635-a2af-1b72a7c74567))
  (pad "P9" smd circle (at 0 2.5 90) (size 0.322 0.322) (layers "F.Cu" "F.Paste" "F.Mask") (tstamp 4a724030-d669-414b-a7ff-7fa548fedcb0))
  (pad "P10" smd circle (at 0.5 2.5 90) (size 0.322 0.322) (layers "F.Cu" "F.Paste" "F.Mask") (tstamp e469a13b-5043-40f5-a8fe-6723f63ddc09))
  (pad "P11" smd circle (at 1 2.5 90) (size 0.322 0.322) (layers "F.Cu" "F.Paste" "F.Mask") (tstamp 0a443e0d-fddc-4f12-9036-b6c5cbeb7d6f))
  (pad "P12" smd circle (at 1.5 2.5 90) (size 0.322 0.322) (layers "F.Cu" "F.Paste" "F.Mask") (tstamp 2a79ffb4-2d23-498f-b7a8-2b9efa2dcd6d))
  (pad "P13" smd circle (at 2 2.5 90) (size 0.322 0.322) (layers "F.Cu" "F.Paste" "F.Mask") (tstamp a4403f8b-a900-4eb6-8a4d-41088cc3a931))
  (pad "P16" smd circle (at 3.5 2.5 90) (size 0.322 0.322) (layers "F.Cu" "F.Paste" "F.Mask") (tstamp 824b4b92-8ae6-4ac2-b730-a8f5fa54180c))
  (pad "R1" smd circle (at -4 3 90) (size 0.322 0.322) (layers "F.Cu" "F.Paste" "F.Mask") (tstamp 3e9a69d4-72a8-4465-a258-5d64d6b9393f))
  (pad "R2" smd circle (at -3.5 3 90) (size 0.322 0.322) (layers "F.Cu" "F.Paste" "F.Mask") (tstamp 59bcb9cf-63c1-49c0-9e09-32e97073c182))
  (pad "R3" smd circle (at -3 3 90) (size 0.322 0.322) (layers "F.Cu" "F.Paste" "F.Mask") (tstamp dd4a80cf-aed1-4f7b-aa49-7e5204dd2cc9))
  (pad "R5" smd circle (at -2 3 90) (size 0.322 0.322) (layers "F.Cu" "F.Paste" "F.Mask") (tstamp 93c84fa8-3d30-4a64-80f6-251c3e6d0a84))
  (pad "R7" smd circle (at -1 3 90) (size 0.322 0.322) (layers "F.Cu" "F.Paste" "F.Mask") (tstamp 9262c7d3-8469-461f-b560-6292a46b6254))
  (pad "R9" smd circle (at 0 3 90) (size 0.322 0.322) (layers "F.Cu" "F.Paste" "F.Mask") (tstamp b888ed45-25df-420f-bdfd-52185c81181d))
  (pad "R11" smd circle (at 1 3 90) (size 0.322 0.322) (layers "F.Cu" "F.Paste" "F.Mask") (tstamp 9d739939-b4cf-4c27-9abf-4d234c03efde))
  (pad "R13" smd circle (at 2 3 90) (size 0.322 0.322) (layers "F.Cu" "F.Paste" "F.Mask") (tstamp bff71930-d437-4ec7-9c82-2227cb83239a))
  (pad "R14" smd circle (at 2.5 3 90) (size 0.322 0.322) (layers "F.Cu" "F.Paste" "F.Mask") (tstamp 51922447-0f45-435c-b8a0-d8ab8fabb438))
  (pad "R15" smd circle (at 3 3 90) (size 0.322 0.322) (layers "F.Cu" "F.Paste" "F.Mask") (tstamp c4e5571b-e0e7-44dc-941b-697e7ab08cff))
  (pad "R16" smd circle (at 3.5 3 90) (size 0.322 0.322) (layers "F.Cu" "F.Paste" "F.Mask") (tstamp 7de31210-cd0e-449a-9cf1-c0886ee5ad09))
  (pad "R17" smd circle (at 4 3 90) (size 0.322 0.322) (layers "F.Cu" "F.Paste" "F.Mask") (tstamp 4d7ca68c-8b7a-448a-b78d-f0d552bf1223))
  (pad "T1" smd circle (at -4 3.5 90) (size 0.322 0.322) (layers "F.Cu" "F.Paste" "F.Mask") (tstamp c4aafd74-f072-4064-8999-a1a79346462a))
  (pad "T2" smd circle (at -3.5 3.5 90) (size 0.322 0.322) (layers "F.Cu" "F.Paste" "F.Mask") (tstamp 0b459bf9-b68c-492a-a0aa-d2b81e0b6e2e))
  (pad "T3" smd circle (at -3 3.5 90) (size 0.322 0.322) (layers "F.Cu" "F.Paste" "F.Mask") (tstamp 9b358ba5-15d7-49be-be88-240b4422ec30))
  (pad "T4" smd circle (at -2.5 3.5 90) (size 0.322 0.322) (layers "F.Cu" "F.Paste" "F.Mask") (tstamp 5a00e098-5192-4540-9073-e27d5447e879))
  (pad "T5" smd circle (at -2 3.5 90) (size 0.322 0.322) (layers "F.Cu" "F.Paste" "F.Mask") (tstamp 2a77a72e-d058-40b9-a6e8-cfe4c97e7ab1))
  (pad "T7" smd circle (at -1 3.5 90) (size 0.322 0.322) (layers "F.Cu" "F.Paste" "F.Mask") (tstamp 61d13227-ea38-4175-a5c0-8f75a3d5765d))
  (pad "T8" smd circle (at -0.5 3.5 90) (size 0.322 0.322) (layers "F.Cu" "F.Paste" "F.Mask") (tstamp c00a6ff3-d367-48aa-9987-c597c23d6ece))
  (pad "T9" smd circle (at 0 3.5 90) (size 0.322 0.322) (layers "F.Cu" "F.Paste" "F.Mask") (tstamp ed719640-2001-4a0b-956b-2fc557f849a0))
  (pad "T11" smd circle (at 1 3.5 90) (size 0.322 0.322) (layers "F.Cu" "F.Paste" "F.Mask") (tstamp 09c5b2e9-fadc-49a8-867f-ed662ece0465))
  (pad "T12" smd circle (at 1.5 3.5 90) (size 0.322 0.322) (layers "F.Cu" "F.Paste" "F.Mask") (tstamp 262f85ee-a49a-4194-bdee-29ac02a484ec))
  (pad "T13" smd circle (at 2 3.5 90) (size 0.322 0.322) (layers "F.Cu" "F.Paste" "F.Mask") (tstamp 8d9916ee-e2bd-408c-960d-d9bae62b28e4))
  (pad "T15" smd circle (at 3 3.5 90) (size 0.322 0.322) (layers "F.Cu" "F.Paste" "F.Mask") (tstamp e10a8197-feb1-49a8-8ce1-531c3527f182))
  (pad "T16" smd circle (at 3.5 3.5 90) (size 0.322 0.322) (layers "F.Cu" "F.Paste" "F.Mask") (tstamp aef028c9-bd4b-4984-aea9-019dcc39d7ec))
  (pad "T17" smd circle (at 4 3.5 90) (size 0.322 0.322) (layers "F.Cu" "F.Paste" "F.Mask") (tstamp 54c8435a-0b4b-47ec-b2ba-919fa8bf92bd))
  (pad "U1" smd circle (at -4 4 90) (size 0.322 0.322) (layers "F.Cu" "F.Paste" "F.Mask") (tstamp e3da7779-0ea1-46dc-90c1-3da0eae63ac3))
  (pad "U2" smd circle (at -3.5 4 90) (size 0.322 0.322) (layers "F.Cu" "F.Paste" "F.Mask") (tstamp e36b28a4-7427-4708-a63e-3fe312e8d49f))
  (pad "U3" smd circle (at -3 4 90) (size 0.322 0.322) (layers "F.Cu" "F.Paste" "F.Mask") (tstamp ac400113-5b0c-4ba3-90f5-fba5c1ab46ed))
  (pad "U5" smd circle (at -2 4 90) (size 0.322 0.322) (layers "F.Cu" "F.Paste" "F.Mask") (tstamp 92927a9e-f25b-41ba-9c93-2d6e3e6c1f89))
  (pad "U7" smd circle (at -1 4 90) (size 0.322 0.322) (layers "F.Cu" "F.Paste" "F.Mask") (tstamp 196afe34-74fd-48ae-9b9f-d7a341cb4cdd))
  (pad "U9" smd circle (at 0 4 90) (size 0.322 0.322) (layers "F.Cu" "F.Paste" "F.Mask") (tstamp 959a520e-05e4-488b-a17d-dfb714eea3cc))
  (pad "U11" smd circle (at 1 4 90) (size 0.322 0.322) (layers "F.Cu" "F.Paste" "F.Mask") (tstamp b5ffc3b0-893d-4977-bac8-ca0fd10d098d))
  (pad "U13" smd circle (at 2 4 90) (size 0.322 0.322) (layers "F.Cu" "F.Paste" "F.Mask") (tstamp fa1503a0-19c0-4e06-a1de-65c87d9f3046))
  (pad "U15" smd circle (at 3 4 90) (size 0.322 0.322) (layers "F.Cu" "F.Paste" "F.Mask") (tstamp 75e54a73-a71d-4649-833f-7b284b918c88))
  (pad "U16" smd circle (at 3.5 4 90) (size 0.322 0.322) (layers "F.Cu" "F.Paste" "F.Mask") (tstamp 65648dec-894d-4846-9000-a3f37128d377))
  (pad "U17" smd circle (at 4 4 90) (size 0.322 0.322) (layers "F.Cu" "F.Paste" "F.Mask") (tstamp 725ddd62-c356-4053-88dd-d8de16f6d111))
  (model "D:\\OHDSP-DEV\\LibraryLoader\\SamacSys_Parts.3dshapes\\MIMXRT685SFVKB.stp"
    (offset (xyz 0 0 0))
    (scale (xyz 1 1 1))
    (rotate (xyz 0 0 0))
  )
)
